ISSS626-GAA - Take Home Exercise 2
…
HCSA <- wm_idw %>%
  mutate(local_Gi = local_gstar_perm(
    no_tourist_all, nb, wts, nsim=99),
    .before = 1) %>%
  unnest(local_Gi)

HCSA

Simple feature collection with 76 features and 24 fields
Geometry type: MULTIPOLYGON
Dimension:     XY
Bounding box:  xmin: 97.34336 ymin: 5.613038 xmax: 105.637 ymax: 20.46507
Geodetic CRS:  WGS 84
# A tibble: 76 × 25
   gi_star cluster     e_gi  var_gi std_dev  p_value p_sim p_folded_sim skewness
     <dbl> <fct>      <dbl>   <dbl>   <dbl>    <dbl> <dbl>        <dbl>    <dbl>
 1 -0.329  High    0.00152  4.79e-7 -0.0583 9.54e- 1  0.92         0.46     1.24
 2  7.58   Low     0.000756 3.40e-7 16.9    1.93e-64  0.02         0.01     1.56
 3  3.95   Low     0.00153  2.10e-6  3.64   2.71e- 4  0.1          0.05     2.91
 4  3.77   Low     0.00176  2.01e-6  3.36   7.69e- 4  0.06         0.03     2.27
 5 -0.361  High    0.00187  2.18e-6 -0.333  7.39e- 1  0.96         0.48     3.29
 6  0.232  Low     0.00118  7.52e-7  0.448  6.54e- 1  0.36         0.18     3.61
 7 -0.0166 High    0.00129  9.39e-7 -0.164  8.70e- 1  0.82         0.41     2.25
 8 -0.527  Low     0.00123  9.18e-7 -0.509  6.11e- 1  0.56         0.28     3.39
 9 -0.579  Low     0.00108  1.58e-6 -0.495  6.20e- 1  0.54         0.27     2.81
10  0.459  High    0.000915 4.31e-7  0.730  4.66e- 1  0.24         0.12     3.08
# ℹ 66 more rows
# ℹ 16 more variables: kurtosis <dbl>, nb <nb>, wts <list>, Shape_Leng <dbl>,
#   Shape_Area <dbl>, ADM1_EN <chr>, ADM1_PCODE <chr>, no_tourist_all <dbl>,
#   no_tourist_foreign <dbl>, no_tourist_stay <dbl>, no_tourist_thai <dbl>,
#   ratio_tourist_stay <dbl>, revenue_all <dbl>, revenue_foreign <dbl>,
#   revenue_thai <dbl>, geometry <MULTIPOLYGON [°]>
…
