Take-Home Exercise 03 - Predictive Model on HDB Resale Prices – ISSS626-GAA
…
Read from the saved RDS.

hdb5rm_r_2023_loc <- read_rds("data/rds/hdb5rm_r_2023_loc.rds")

Ensuring CRS is 3414

hdb5rm_r_2023_sf <- st_as_sf(hdb5rm_r_2023_loc, coords = c("longitude", "latitude"),crs=4326)
st_transform(hdb5rm_r_2023_sf, crs = 3414)

Simple feature collection with 5843 features and 15 fields
Geometry type: POINT
Dimension:     XY
Bounding box:  xmin: 11755.72 ymin: 28211.46 xmax: 46810.43 ymax: 48741.06
Projected CRS: SVY21 / Singapore TM
# A tibble: 5,843 × 16
   month      town       flat_type block street_name storey_range floor_area_sqm
 * <date>     <chr>      <chr>     <chr> <chr>       <chr>                 <dbl>
 1 2023-01-01 ANG MO KIO 5 ROOM    306   ANG MO KIO… 16 TO 18                123
 2 2023-01-01 ANG MO KIO 5 ROOM    306   ANG MO KIO… 04 TO 06                123
 3 2023-01-01 ANG MO KIO 5 ROOM    402   ANG MO KIO… 10 TO 12                119
 4 2023-01-01 ANG MO KIO 5 ROOM    259   ANG MO KIO… 13 TO 15                135
 5 2023-01-01 ANG MO KIO 5 ROOM    176   ANG MO KIO… 04 TO 06                119
 6 2023-01-01 ANG MO KIO 5 ROOM    618   ANG MO KIO… 13 TO 15                133
 7 2023-01-01 ANG MO KIO 5 ROOM    520   ANG MO KIO… 19 TO 21                118
 8 2023-01-01 ANG MO KIO 5 ROOM    700C  ANG MO KIO… 19 TO 21                111
 9 2023-01-01 ANG MO KIO 5 ROOM    714   ANG MO KIO… 10 TO 12                119
10 2023-01-01 ANG MO KIO 5 ROOM    253   ANG MO KIO… 04 TO 06                128
# ℹ 5,833 more rows
# ℹ 9 more variables: flat_model <chr>, lease_commence_date <dbl>,
#   remaining_lease <dbl>, resale_price <dbl>, storey_mid <dbl>,
#   age_of_unit <dbl>, address <chr>, postal <chr>, geometry <POINT [m]>
…
