Take-home Exercise 1 – ISSS626-GAA
…
Generating samples of the road network using lines_center() of spNetwork.

samples <-lines_center(lixels)

Perform NKDE

acc_bkk_32647 <- st_zm(acc_sf_projected_bkk)
acc_bkk_32647

Simple feature collection with 6090 features and 36 fields
Geometry type: POINT
Dimension:     XY
Bounding box:  xmin: 644139 ymin: 1505014 xmax: 708461.2 ymax: 1542968
Projected CRS: WGS 84 / UTM zone 47N
# A tibble: 6,090 × 37
   acc_code incident_datetime   report_datetime     province_th  province_en
 *    <dbl> <dttm>              <dttm>              <chr>        <chr>      
 1   629691 2019-01-01 03:05:00 2019-01-01 03:05:00 กรุงเทพมหานคร Bangkok    
 2   629689 2019-01-01 05:42:00 2019-01-01 05:42:00 กรุงเทพมหานคร Bangkok    
 3   604307 2019-01-01 10:10:00 2019-03-06 10:49:00 กรุงเทพมหานคร Bangkok    
 4  3793736 2019-01-01 17:30:00 2020-03-11 13:15:00 กรุงเทพมหานคร Bangkok    
 5   599070 2019-01-01 19:20:00 2019-01-01 20:57:00 กรุงเทพมหานคร Bangkok    
 6   613605 2019-01-01 21:40:00 2019-11-18 10:57:00 กรุงเทพมหานคร Bangkok    
 7   615219 2019-01-01 22:15:00 2019-12-27 10:12:00 กรุงเทพมหานคร Bangkok    
 8   613557 2019-01-01 23:05:00 2019-11-18 10:57:00 กรุงเทพมหานคร Bangkok    
 9   629699 2019-01-02 03:40:00 2019-01-02 03:40:00 กรุงเทพมหานคร Bangkok    
10  3793707 2019-01-02 07:00:00 2020-03-11 12:57:00 กรุงเทพมหานคร Bangkok    
# ℹ 6,080 more rows
# ℹ 32 more variables: agency <chr>, route <chr>, vehicle_type <chr>,
#   presumed_cause <chr>, accident_type <chr>,
#   number_of_vehicles_involved <dbl>, number_of_fatalities <dbl>,
#   number_of_injuries <dbl>, weather_condition <chr>, road_description <chr>,
#   slope_description <chr>, Month_num <dbl>, Month_fac <ord>, dayofweek <int>,
#   geometry <POINT [m]>, Shape_Leng <dbl>, Shape_Area <dbl>, ADM1_EN <chr>, …
…
